PRELOADER 0x0
{
}
MBR 0xc00000
{
}
EBR1 0xc80000
{
}
__NODL_PRO_INFO 0xd00000
{
}
__NODL_NVRAM 0x1000000
{
}
__NODL_PROTECT_F 0x1500000
{
}
__NODL_PROTECT_S 0x1f00000
{
}
__NODL_SECCFG 0x2900000
{
}
UBOOT 0x2920000
{
}
BOOTIMG 0x2980000
{
}
RECOVERY 0x3980000
{
}
SEC_RO 0x4980000
{
}
__NODL_MISC 0x4f80000
{
}
LOGO 0x5000000
{
}
EBR2 0x5300000
{
}
__NODL_EXPDB 0x5380000
{
}
__NODL_GLOBAL_CUST 0x5d80000
{
}
__NODL_ROOTM 0x12580000
{
}
ANDROID 0x12980000
{
}
CACHE 0x63d80000
{
}
USRDATA 0x6bb80000
{
}
__NODL_BMTPOOL 0xffff00a8
{
}


